
{
  "submitOrderResponse": {
    "xmlns": "http://services.omx.truecorp.co.th/SubmitOrder",
    "respMsg": "Order submitted successfully in OMX",
    "respCode": "OM010100000",
    "OMXTrackingId": "99-996c04ad-a96b-47ff-9569-9635128cfeb5"
  }
}