{
   "uuid": "da3848c5-3860-4be8-a5fe-c37d581cd2b6",
   "errorCode": "INT10001",
   "message": "Data Not Found.",
   "backendResponseList": {
       "size": 1,
       "backendResponseInfoArray": [
           {
               "errorCode": "not_found",
               "message": "not_found",
               "apiName": "searchMultiple",
               "system": "CDB",
               "url": "[hidden]"
           }
       ]
   },
   "msisdnList": null
}