{
  "uuid":"e965b158-d968-4adb-a7ce-67755a310319",
  "errorCode":"INT00001",
  "message":"Success.",
  "backendResponseList":{
     "size":1,
     "backendResponseInfoArray":[
        {
           "errorCode":"success",
           "message":"success",
           "apiName":"searchMultiple",
           "system":"CDB"
        }
     ]
  },
  "msisdnList":[
     {
        "primResourceValue":"0001110000",
        "msisdn":"0898196503",
        "retString":"success",
        "accSubType":null,
        "convergence":"000000000000001000000000",
        "firstcall":null,
        "gprsApnList":null,
        "gprsType":null,
        "imsi":null,
        "inChain":null,
        "priceplan":null,
        "provision":null,
        "status":"A",
        "subCat":"I",
        "subType":"PRE",
        "vas":null,
        "statusCode":null,
        "statusDescription":null,
        "firstcallDate":null,
        "provisionDate":null
     }
  ]
}
