{
    "getOfferDetailListResponse": {
        "return": {
            "uuid": "99b7221d-4dc0-402a-b683-8d06a4073b3b",
            "errorCode": "OSBbllngA00001",
            "message": "Success.",
            "offerDetailList": {
                "offerDetailInfoArray": [
                    {
                        "saleEffectiveDate": "2019-12-04T00:00:00+07:00",
                        "code": "16369329",
                        "hierarchyType": "",
                        "primResourceType": "",
                        "description": "TMH prepay for New Social 2019",
                        "deployFromGroupIndicator": "",
                        "serviceLevel": {
                            "code": "C",
                            "description": "Subscriber"
                        },
                        "saleExpirationDate": "2022-12-31T23:59:59+07:00",
                        "duration": "",
                        "socType": "P",
                        "rcRate": "0.0",
                        "maxInstancesAllowed": {
                            "code": "",
                            "description": ""
                        },
                        "specialOfferType": "",
                        "name": "R19NEWSOC",
                        "currency": "",
                        "billDescription": {
                            "thaiLine2": "",
                            "thaiLine3": "",
                            "thaiLine1": "",
                            "englishLine2": "",
                            "englishLine3": "",
                            "englishLine1": ""
                        },
                        "saleContext": "S",
                        "durationUOM": "",
                        "productType": "RR",
                        "properties": "TR_ACCOUNT_SUB_TYPE=;TR_CUSTOMER_TYPE=P;TR_OFFER_GROUP=;",
                        "rcIndicator": "",
                        "durationCalculationLevel": {
                            "code": "",
                            "description": ""
                        },
                        "propertiesList": {
                            "size": 3,
                            "propertiesInfoArray": [
                                {
                                    "name": "TR_ACCOUNT_SUB_TYPE",
                                    "value": ""
                                },
                                {
                                    "name": "TR_CUSTOMER_TYPE",
                                    "value": "P"
                                },
                                {
                                    "name": "TR_OFFER_GROUP",
                                    "value": ""
                                }
                            ]
                        },
                        "offerItemList": {
                            "size": 13,
                            "offerItemInfoArray": [
                                {
                                    "routingCategoryIds": "",
                                    "itemId": "",
                                    "itemName": "CFB",
                                    "itemType": "",
                                    "barring": "",
                                    "itemProperties": "Default sw params=ACT=N@NUMBER;Switch code=CFB;",
                                    "piMgmtPlatform": "",
                                    "primaryIndicator": "",
                                    "itemDescription": "Call Fwd on Busy",
                                    "distributableIndicator": "",
                                    "packageCd": "",
                                    "revenueCode": "",
                                    "itemPropertiesList": {
                                        "size": 2,
                                        "itemProperiesInfoArray": [
                                            {
                                                "name": "Default sw params",
                                                "value": "ACT=N@NUMBER"
                                            },
                                            {
                                                "name": "Switch code",
                                                "value": "CFB"
                                            }
                                        ]
                                    }
                                },
                                {
                                    "routingCategoryIds": "",
                                    "itemId": "",
                                    "itemName": "CFNRC",
                                    "itemType": "",
                                    "barring": "",
                                    "itemProperties": "Default sw params=ACT=N@NUMBER;Switch code=CFNRC;",
                                    "piMgmtPlatform": "",
                                    "primaryIndicator": "",
                                    "itemDescription": "Call Fwd on Non Reachable",
                                    "distributableIndicator": "",
                                    "packageCd": "",
                                    "revenueCode": "",
                                    "itemPropertiesList": {
                                        "size": 2,
                                        "itemProperiesInfoArray": [
                                            {
                                                "name": "Default sw params",
                                                "value": "ACT=N@NUMBER"
                                            },
                                            {
                                                "name": "Switch code",
                                                "value": "CFNRC"
                                            }
                                        ]
                                    }
                                },
                                {
                                    "routingCategoryIds": "",
                                    "itemId": "",
                                    "itemName": "CFNRY",
                                    "itemType": "",
                                    "barring": "",
                                    "itemProperties": "Default sw params=ACT=N@NUMBER;Switch code=CFNRY;",
                                    "piMgmtPlatform": "",
                                    "primaryIndicator": "",
                                    "itemDescription": "Call Fwd on Non Reply",
                                    "distributableIndicator": "",
                                    "packageCd": "",
                                    "revenueCode": "",
                                    "itemPropertiesList": {
                                        "size": 2,
                                        "itemProperiesInfoArray": [
                                            {
                                                "name": "Default sw params",
                                                "value": "ACT=N@NUMBER"
                                            },
                                            {
                                                "name": "Switch code",
                                                "value": "CFNRY"
                                            }
                                        ]
                                    }
                                },
                                {
                                    "routingCategoryIds": "",
                                    "itemId": "",
                                    "itemName": "CFU",
                                    "itemType": "",
                                    "barring": "",
                                    "itemProperties": "Default sw params=ACT=N@NUMBER;Switch code=CFU;",
                                    "piMgmtPlatform": "",
                                    "primaryIndicator": "",
                                    "itemDescription": "Unconditional Call Fwd",
                                    "distributableIndicator": "",
                                    "packageCd": "",
                                    "revenueCode": "",
                                    "itemPropertiesList": {
                                        "size": 2,
                                        "itemProperiesInfoArray": [
                                            {
                                                "name": "Default sw params",
                                                "value": "ACT=N@NUMBER"
                                            },
                                            {
                                                "name": "Switch code",
                                                "value": "CFU"
                                            }
                                        ]
                                    }
                                },
                                {
                                    "routingCategoryIds": "",
                                    "itemId": "",
                                    "itemName": "CHOLD",
                                    "itemType": "",
                                    "barring": "",
                                    "itemProperties": "Default sw params=N;Switch code=CH;",
                                    "piMgmtPlatform": "",
                                    "primaryIndicator": "",
                                    "itemDescription": "Call Hold",
                                    "distributableIndicator": "",
                                    "packageCd": "",
                                    "revenueCode": "",
                                    "itemPropertiesList": {
                                        "size": 2,
                                        "itemProperiesInfoArray": [
                                            {
                                                "name": "Default sw params",
                                                "value": "N"
                                            },
                                            {
                                                "name": "Switch code",
                                                "value": "CH"
                                            }
                                        ]
                                    }
                                },
                                {
                                    "routingCategoryIds": "",
                                    "itemId": "",
                                    "itemName": "CLIP",
                                    "itemType": "",
                                    "barring": "",
                                    "itemProperties": "Default sw params=N;Switch code=CLIP;",
                                    "piMgmtPlatform": "",
                                    "primaryIndicator": "",
                                    "itemDescription": "Calling Line Ind Presentation",
                                    "distributableIndicator": "",
                                    "packageCd": "",
                                    "revenueCode": "",
                                    "itemPropertiesList": {
                                        "size": 2,
                                        "itemProperiesInfoArray": [
                                            {
                                                "name": "Default sw params",
                                                "value": "N"
                                            },
                                            {
                                                "name": "Switch code",
                                                "value": "CLIP"
                                            }
                                        ]
                                    }
                                },
                                {
                                    "routingCategoryIds": "",
                                    "itemId": "",
                                    "itemName": "CWAIT",
                                    "itemType": "",
                                    "barring": "",
                                    "itemProperties": "Default sw params=N;Switch code=CW;",
                                    "piMgmtPlatform": "",
                                    "primaryIndicator": "",
                                    "itemDescription": "Call wait",
                                    "distributableIndicator": "",
                                    "packageCd": "",
                                    "revenueCode": "",
                                    "itemPropertiesList": {
                                        "size": 2,
                                        "itemProperiesInfoArray": [
                                            {
                                                "name": "Default sw params",
                                                "value": "N"
                                            },
                                            {
                                                "name": "Switch code",
                                                "value": "CW"
                                            }
                                        ]
                                    }
                                },
                                {
                                    "routingCategoryIds": "",
                                    "itemId": "",
                                    "itemName": "DATA",
                                    "itemType": "",
                                    "barring": "",
                                    "itemProperties": "Default sw params=MSISDN;Switch code=B26;",
                                    "piMgmtPlatform": "",
                                    "primaryIndicator": "",
                                    "itemDescription": "Data",
                                    "distributableIndicator": "",
                                    "packageCd": "",
                                    "revenueCode": "",
                                    "itemPropertiesList": {
                                        "size": 2,
                                        "itemProperiesInfoArray": [
                                            {
                                                "name": "Default sw params",
                                                "value": "MSISDN"
                                            },
                                            {
                                                "name": "Switch code",
                                                "value": "B26"
                                            }
                                        ]
                                    }
                                },
                                {
                                    "routingCategoryIds": "",
                                    "itemId": "",
                                    "itemName": "FAX",
                                    "itemType": "",
                                    "barring": "",
                                    "itemProperties": "Default sw params=MSISDN;Switch code=T60;",
                                    "piMgmtPlatform": "",
                                    "primaryIndicator": "",
                                    "itemDescription": "Fax - Received",
                                    "distributableIndicator": "",
                                    "packageCd": "",
                                    "revenueCode": "",
                                    "itemPropertiesList": {
                                        "size": 2,
                                        "itemProperiesInfoArray": [
                                            {
                                                "name": "Default sw params",
                                                "value": "MSISDN"
                                            },
                                            {
                                                "name": "Switch code",
                                                "value": "T60"
                                            }
                                        ]
                                    }
                                },
                                {
                                    "routingCategoryIds": "",
                                    "itemId": "",
                                    "itemName": "MPTY",
                                    "itemType": "",
                                    "barring": "",
                                    "itemProperties": "Default sw params=MPTY;Switch code=MPTY;",
                                    "piMgmtPlatform": "",
                                    "primaryIndicator": "",
                                    "itemDescription": "Multi Party Call Conference",
                                    "distributableIndicator": "",
                                    "packageCd": "",
                                    "revenueCode": "",
                                    "itemPropertiesList": {
                                        "size": 2,
                                        "itemProperiesInfoArray": [
                                            {
                                                "name": "Default sw params",
                                                "value": "MPTY"
                                            },
                                            {
                                                "name": "Switch code",
                                                "value": "MPTY"
                                            }
                                        ]
                                    }
                                },
                                {
                                    "routingCategoryIds": "",
                                    "itemId": "",
                                    "itemName": "SMSORG",
                                    "itemType": "",
                                    "barring": "",
                                    "itemProperties": "Default sw params=N;Switch code=T22;",
                                    "piMgmtPlatform": "",
                                    "primaryIndicator": "",
                                    "itemDescription": "SMS - Originated",
                                    "distributableIndicator": "",
                                    "packageCd": "",
                                    "revenueCode": "",
                                    "itemPropertiesList": {
                                        "size": 2,
                                        "itemProperiesInfoArray": [
                                            {
                                                "name": "Default sw params",
                                                "value": "N"
                                            },
                                            {
                                                "name": "Switch code",
                                                "value": "T22"
                                            }
                                        ]
                                    }
                                },
                                {
                                    "routingCategoryIds": "",
                                    "itemId": "",
                                    "itemName": "SMSTER",
                                    "itemType": "",
                                    "barring": "",
                                    "itemProperties": "Default sw params=N;Switch code=T21;",
                                    "piMgmtPlatform": "",
                                    "primaryIndicator": "",
                                    "itemDescription": "SMS - Termination",
                                    "distributableIndicator": "",
                                    "packageCd": "",
                                    "revenueCode": "",
                                    "itemPropertiesList": {
                                        "size": 2,
                                        "itemProperiesInfoArray": [
                                            {
                                                "name": "Default sw params",
                                                "value": "N"
                                            },
                                            {
                                                "name": "Switch code",
                                                "value": "T21"
                                            }
                                        ]
                                    }
                                },
                                {
                                    "routingCategoryIds": "",
                                    "itemId": "",
                                    "itemName": "PMJAGQ",
                                    "itemType": "",
                                    "barring": "",
                                    "itemProperties": "Default sw params=METHOD=PRE@PROFILE=R19NEWSOC;Switch code=PM;",
                                    "piMgmtPlatform": "",
                                    "primaryIndicator": "",
                                    "itemDescription": "Pre Pay Provisioning - TMH prepay for New Social 2019",
                                    "distributableIndicator": "",
                                    "packageCd": "",
                                    "revenueCode": "",
                                    "itemPropertiesList": {
                                        "size": 2,
                                        "itemProperiesInfoArray": [
                                            {
                                                "name": "Default sw params",
                                                "value": "METHOD=PRE@PROFILE=R19NEWSOC"
                                            },
                                            {
                                                "name": "Switch code",
                                                "value": "PM"
                                            }
                                        ]
                                    }
                                }
                            ]
                        }
                    }
                ],
                "size": 1
            }
        }
    }
}