{
    "transactionID": "4799c185-783a-4ba3-8c25-fa41048e3a93",
    "serviceResult": {
        "status": "ERROR",
        "code": "NAS307",
        "description": "Data not found."
    },
    "message": "",
    "data": {
        "msisdn": "",
        "actType": "",
        "poolName": "",
        "poolGroup": "",
        "reserveDealer": "",
        "pstId": "",
        "companyCode": "",
        "amdocPropoCode": "",
        "pricePlanCode": "",
        "idNumber": "",
        "reserveDate": "",
        "reserveExpiredDate": "",
        "referenceIdPartialOrder": "",
        "eId": "",
        "contactEmail": "",
        "contactMobileNo": "",
        "ekycFlag": ""
    }
}