{
    "transactionID": "4253dbb8-7070-457f-849c-80198512048e",
    "serviceResult": {
        "status": "OK",
        "code": "200",
        "description": "Success"
    },
    "message": "",
    "data": {
        "msisdn": "0610014640",
        "actType": "PREPAID",
        "poolName": "PRETUCESIM",
        "poolGroup": "eSIM",
        "reserveDealer": "80100112",
        "pstId": "0106552",
        "companyCode": "RF",
        "amdocPropoCode": "PRE000000000010",
        "pricePlanCode": "",
        "idNumber": "1101801067306",
        "reserveDate": "2022-06-01 12:14:11",
        "reserveExpiredDate": "2099-06-16 12:14:11",
        "referenceIdPartialOrder": "",
        "eId": "",
        "contactEmail": "",
        "contactMobileNo": "",
        "ekycFlag": "N"
    }
}