{
    "transactionID": "TestEsimPassport",
    "serviceResult": {
        "status": "OK",
        "code": "200",
        "description": "Success"
    },
    "message": "",
    "data": {
        "msisdn": "",
        "poolName": "",
        "poolGroup": "",
        "reserveDealer": "",
        "pstId": "",
        "companyCode": "",
        "amdocPropoCode": "",
        "pricePlanCode": "",
        "idNumber": "",
        "reserveDate": "",
        "reserveExpiredDate": ""
    }
}